<svg width="24" height="24" viewBox="0 0 24 24" fill="none" xmlns="http://www.w3.org/2000/svg">
<g clip-path="url(#clip0_595_3297)">
<path d="M6.34528 20.5547L6.73749 20.7486C8.37194 21.7181 10.2024 22.1706 12.0329 22.1706C17.7858 22.1706 22.4927 17.5167 22.4927 11.8285C22.4927 9.11369 21.3813 6.4635 19.4201 4.52432C17.4589 2.58514 14.8439 1.48633 12.0329 1.48633C6.27996 1.48633 1.57295 6.14029 1.63837 11.8932C1.63837 13.8322 2.22673 15.7068 3.20731 17.3227L3.46878 17.7106L2.42289 21.5243L6.34528 20.5547Z" fill="#25D366"/>
<path d="M20.5323 3.49047C18.3096 1.22817 15.237 0 12.0991 0C5.43099 0 0.0702983 5.36497 0.13562 11.8934C0.13562 13.9619 0.723984 15.9657 1.70465 17.7756L0.00488281 23.9162L6.34615 22.3003C8.11125 23.2699 10.0724 23.7224 12.0337 23.7224C18.6365 23.7224 23.9972 18.3573 23.9972 11.8289C23.9972 8.66159 22.755 5.68819 20.5324 3.49047H20.5323ZM12.0991 21.7186C10.334 21.7186 8.56887 21.2662 7.06525 20.3613L6.67304 20.1673L2.88138 21.1369L3.86196 17.4525L3.60048 17.0646C0.723984 12.4754 2.09687 6.3992 6.80378 3.55506C11.5107 0.711012 17.5905 2.06845 20.467 6.72241C23.3434 11.3764 21.9705 17.3878 17.2637 20.2319C15.76 21.2015 13.9296 21.7185 12.0991 21.7185V21.7186ZM17.852 14.5438L17.1329 14.2206C17.1329 14.2206 16.087 13.7681 15.4332 13.4449C15.3678 13.4449 15.3024 13.3802 15.237 13.3802C15.0409 13.3802 14.9101 13.4449 14.7794 13.5096C14.7794 13.5096 14.7141 13.5742 13.7988 14.6084C13.7334 14.7377 13.6027 14.8023 13.4719 14.8023H13.4065C13.3412 14.8023 13.2105 14.7377 13.145 14.6731L12.8182 14.5438C12.0991 14.2206 11.4454 13.8327 10.9223 13.3156C10.7916 13.1864 10.5954 13.0571 10.4647 12.9278C10.0071 12.4754 9.54945 11.9582 9.22265 11.3765L9.15724 11.2472C9.09191 11.1825 9.09192 11.1179 9.0265 10.9887C9.0265 10.8594 9.0265 10.7301 9.09191 10.6655C9.09191 10.6655 9.35339 10.3422 9.54945 10.1484C9.68028 10.019 9.7456 9.82517 9.87634 9.69591C10.0071 9.50196 10.0725 9.24343 10.0071 9.04948C9.94175 8.72627 9.15724 6.98103 8.96118 6.59324C8.83035 6.39929 8.6997 6.3347 8.50355 6.27002H7.78445C7.65362 6.27002 7.52297 6.3347 7.39214 6.3347L7.32673 6.39929C7.19599 6.46397 7.06525 6.59324 6.93452 6.65782C6.80378 6.78718 6.73836 6.91636 6.60763 7.04571C6.15 7.62746 5.88853 8.33847 5.88853 9.04948C5.88853 9.56655 6.01926 10.0837 6.21542 10.5362L6.28083 10.7301C6.8692 11.9582 7.65362 13.0571 8.6997 14.0267L8.96118 14.2852C9.15724 14.4791 9.35339 14.6084 9.48413 14.8023C10.857 15.9658 12.4259 16.8061 14.191 17.2586C14.3872 17.3232 14.6487 17.3232 14.8448 17.3879H15.4985C15.8254 17.3879 16.2176 17.2586 16.4792 17.1293C16.6752 17.0001 16.806 17.0001 16.9367 16.8708L17.0675 16.7414C17.1983 16.6122 17.329 16.5476 17.4598 16.4183C17.5905 16.2891 17.7212 16.1598 17.7866 16.0304C17.9174 15.7719 17.9827 15.4487 18.0481 15.1256V14.6731C18.0481 14.6731 17.9827 14.6084 17.852 14.5438V14.5438Z" fill="white"/>
</g>
<defs>
<clipPath id="clip0_595_3297">
<rect width="24" height="24" fill="white"/>
</clipPath>
</defs>
</svg>
