{
  "100_50_33_33_33": {
    "default": 1,
    "phone": 0.5,
    "tablet": 0.33333,
    "laptop": 0.33333,
    "desktop": 0.33333
  },
  "100_100_50_50_50": {
    "default": 1,
    "phone": 1,
    "tablet": 0.5,
    "laptop": 0.5,
    "desktop": 0.5
  },
  "100_50_50_50_50": {
    "default": 1,
    "phone": 0.5,
    "tablet": 0.5,
    "laptop": 0.5,
    "desktop": 0.5
  },
  "100_50_25_25_25": {
    "default": 1,
    "phone": 0.5,
    "tablet": 0.25,
    "laptop": 0.25,
    "desktop": 0.25
  },
  "100_100_25_25_25" : {
    "default": 1,
    "phone": 1,
    "tablet": 0.25,
    "laptop": 0.25,
    "desktop": 0.25
  },
  "50_50_50_50_50": {
    "default": 0.5,
    "phone": 0.5,
    "tablet": 0.5,
    "laptop": 0.5,
    "desktop": 0.5
  },
  "100_65_65_65_65": {
    "default": 1,
    "phone": 0.6552,
    "tablet": 0.6552,
    "laptop": 0.6552,
    "desktop":0.6552
  },
  "100_33_33_33_33": {
    "default":1,
    "phone": 0.33333,
    "tablet": 0.33333,
    "laptop": 0.33333,
    "desktop": 0.33333
  },
  "100_100_33_33_33" : {
    "default": 1,
    "phone": 1,
    "tablet": 0.33333,
    "laptop": 0.33333,
    "desktop": 0.33333
  },
  "100_90_66_66_66": {
    "default": 1,
    "phone": 0.9,
    "tablet": 0.66666,
    "laptop": 0.66666,
    "desktop": 0.66666
  },
  "100_82_82_82_82": {
    "default": 1,
    "phone": 0.8276,
    "tablet": 0.8276,
    "laptop": 0.8276,
    "desktop": 0.8276
  },
  "54_54_54_54_54": {
    "default": 0.5447,
    "phone": 0.5447,
    "tablet": 0.5447,
    "laptop": 0.5447,
    "desktop": 0.5447
  },
  "100_66_66_66_66": {
    "default": 1,
    "phone": 0.66666,
    "tablet": 0.66666,
    "laptop": 0.66666,
    "desktop": 0.66666
  }
}