<svg width="60" height="60" viewBox="0 0 60 60" fill="none" xmlns="http://www.w3.org/2000/svg">
<path d="M43.7916 14.0438C43.2492 14.0946 42.7228 14.2555 42.2447 14.5168L35.7561 17.9543L26.9905 15.8052L26.4749 15.6773L25.9592 15.9344L22.9947 17.6532L21.2334 18.6844L22.8655 19.9302L26.6041 22.7668L21.9209 25.2597L16.8925 22.9813L16.2916 22.7242L15.6894 23.0253L13.2831 24.3137L11.6936 25.173L12.8967 26.4628L20.33 34.4543L21.0175 35.271L21.9635 34.7554L29.053 30.9742L27.6354 38.7938L27.1624 41.2867L29.526 40.298L33.0487 38.7938L33.5644 38.5793L33.7802 38.0637L38.8925 25.646L46.1112 21.7782C48.0995 20.7098 48.8997 18.1798 47.83 16.1929C47.5718 15.7185 47.2226 15.2997 46.8024 14.9605C46.3822 14.6212 45.8992 14.3681 45.3811 14.2157C44.8667 14.0593 44.3275 14.001 43.7916 14.0438ZM44.0487 16.7938C44.2206 16.7828 44.398 16.7883 44.5644 16.8378C44.8247 16.9104 45.0571 17.0596 45.2314 17.2661C45.4057 17.4726 45.5139 17.7267 45.5418 17.9955C45.5697 18.2643 45.516 18.5353 45.3878 18.7732C45.2596 19.011 45.0627 19.2048 44.8229 19.3293L37.1311 23.4969L36.7007 23.7114L36.5289 24.1844L31.4166 36.4742L30.8144 36.7313L32.276 28.6105L32.7916 25.8179L30.2987 27.1503L21.6197 31.8335L16.1624 25.9032L16.3769 25.7739L21.4052 28.0097L22.0487 28.3094L22.607 27.9657L43.5345 16.923C43.6943 16.8427 43.8699 16.7986 44.0487 16.7938ZM26.8186 18.5992L32.1041 19.8875L29.2675 21.3492L26.1737 18.9855L26.8186 18.5992ZM12.553 43.2199V45.9699H48.303V43.2199H12.553Z" fill="#7E4C4F"/>
</svg>
